[
    {
        "name": "Fatass",
        "descr": "This fat fuck ate all of our food",
        "tags": [
            "ANY",
            "-ROBOT"
        ],
        "effects": [
            {
                "effect": "HUNGER",
                "power": 1
            }
        ],
        "excludes": [
            "none"
        ]
    },
    {
        "name": "Mechanically Inept",
        "descr": "Is not very good at repairs",
        "tags": [
            "ANY",
            "-ROBOT"
        ],
        "effects": [
            {
                "effect": "REPAIR",
                "power": -3
            }
        ],
        "excludes": [
            "Mechanically Inclined"
        ]
    },
    {
        "name": "Delusion of Grandeur",
        "descr": "Expects higher wages",
        "tags": [
            "ANY"
        ],
        "effects": [
            {
                "effect": "WAGES",
                "power": 10
            }
        ],
        "excludes": [
            "Low Self-Esteem",
			"Paranoid"
        ]
    },
    {
        "name": "Weak",
        "descr": "Has lower health",
        "tags": [
            "ANY"
        ],
        "effects": [
            {
                "effect": "HEALTH",
                "power": -20
            }
        ],
        "excludes": [
            "Strong",
            "Brawler"
        ]
    },
    {
        "name": "Non Violent",
        "descr": "Not good at fighting",
        "tags": [
            "ANY"
        ],
        "effects": [
            {
                "effect": "MELEE_DAMAGE",
                "power": -1
            }
        ],
        "excludes": [
            "Brawler"
        ]
    }
]