[
    {
        "name": "Small Shield",
        "type": "SHIELD",
		"descr":[
            "Small Shield",
			"<BR>",
			"<QUALITY>",
            "<STORAGE_SIZE> storage",
			"<POWER_USE> power draw",
			"<RECHARGE_TIME>sec recharge time",
			"<RECHARGE_USE>:1 efficiency"
        ],
		"hasQuality": 1,
        "icon": "Small-Shield.png",
        "mass": 300,
        "stack": 0,
		"cost": 1000,
        "x": 1,
        "y": 1,
        "placement": 0,
        "scrap_value": 8,
        "imgON": "shield_ON.png",
        "imgOFF": "shield_OFF.png",
		"energyProduction": -3,
        "rechargeRate": 6,
        "capacity": 100
    },
    {
        "name": "Heavy Shield",
        "type": "SHIELD",
		"descr":[
            "Slow but powerful",
			"<BR>",
			"<QUALITY>",
            "<STORAGE_SIZE> storage",
			"<POWER_USE> power draw",
			"<RECHARGE_TIME>sec recharge time",
			"<RECHARGE_USE>:1 efficiency"
        ],
		"hasQuality": 1,
        "icon": "Small-Shield.png",
        "mass": 300,
        "stack": 0,
		"cost": 1000,
        "x": 1,
        "y": 1,
        "placement": 0,
        "scrap_value": 8,
        "imgON": "shield_ON.png",
        "imgOFF": "shield_OFF.png",
		"energyProduction": -3,
        "rechargeRate": 10,
        "capacity": 200
    },
    {
        "name": "Flex Shield",
        "type": "SHIELD",
		"descr":[
            "Fast but low capacity",
			"<BR>",
			"<QUALITY>",
            "<STORAGE_SIZE> storage",
			"<POWER_USE> power draw",
			"<RECHARGE_TIME>sec recharge time",
			"<RECHARGE_USE>:1 efficiency"
        ],
		"hasQuality": 1,
        "icon": "Small-Shield.png",
        "mass": 300,
        "stack": 0,
		"cost": 1000,
        "x": 1,
        "y": 1,
        "placement": 0,
        "scrap_value": 8,
        "imgON": "shield_ON.png",
        "imgOFF": "shield_OFF.png",
		"energyProduction": -5,
        "rechargeRate": 2,
        "capacity": 30
    }
]