[
    {
        "id": "Stealth Field",
        "display_name": "Stealth Field",
        "descr": [
            "<BR>",
            "Disables shields",
            "Increases dodge"
        ],
        "type": "SYSTEM",
        "effect": "NULL",
        "power": 1,
        "combat_effect": {
            "type": "TRIGGER",
			"hotbar_name": "Stealth",
            "effect": "STEALTH",
            "power": 1,
            "ticks": 100,
            "stress": 60,
            "cooldown": 120
        },
        "cost": 1000,
        "stack": 0,
        "min_level": 0,
        "max_level": 10,
        "drop_range": 5,
        "mass": 1000,
        "icon": "item_stealth_field.png"
    },
    {
        "id": "Afterburner",
        "display_name": "Afterburner",
        "descr": [
            "<BR>",
            "Consumes fuel",
            "Greatly increases thrust"
        ],
        "type": "SYSTEM",
        "effect": "NULL",
        "power": 1,
        "combat_effect": {
            "type": "TRIGGER",
			"hotbar_name": "Afterburner",
            "effect": "AFTERBURNER",
            "power": 100,
            "ticks": 150,
            "stress": 100,
            "cooldown": 50
        },
        "cost": 1000,
        "stack": 0,
        "min_level": 0,
        "max_level": 10,
        "drop_range": 5,
        "mass": 1000,
        "icon": "item_afterburners.png"
    },
    {
        "id": "EMP Generator",
        "display_name": "EMP Generator",
        "descr": [
            "<BR>",
            "Creates an EMP that",
            "Disables both player and enemy ships"
        ],
        "type": "SYSTEM",
        "effect": "NULL",
        "power": 1,
        "combat_effect": {
            "type": "TRIGGER",
			"hotbar_name": "EMP Gen",
            "effect": "EMP",
            "power": 1,
            "ticks": 1,
            "stress": 120,
            "cooldown": 50
        },
        "cost": 1000,
        "stack": 0,
        "min_level": 0,
        "max_level": 10,
        "drop_range": 5,
        "mass": 200,
        "icon": "item_emp_generator.png"
    },
    {
        "id": "Thermal Release",
        "display_name": "Thermal Release",
        "descr": [
            "<BR>",
            "Instantly dumps excess heat",
            "Damages coolant tanks"
        ],
        "type": "SYSTEM",
        "effect": "NULL",
        "power": 1,
        "combat_effect": {
            "type": "TRIGGER",
			"hotbar_name": "T. Release",
            "effect": "THERMAL_RELEASE",
            "power": 1,
            "ticks": 1,
            "stress": 50,
            "cooldown": 50
        },
        "cost": 1000,
        "stack": 0,
        "min_level": 0,
        "max_level": 10,
        "drop_range": 5,
        "mass": 1500,
        "icon": "item_thermal_release.png"
    },
    {
        "id": "Shield Booster",
        "display_name": "Shield Booster",
        "descr": [
            "<BR>",
            "Shields gain a temporary boost"
        ],
        "type": "SYSTEM",
        "effect": "NULL",
        "power": 1,
        "combat_effect": {
            "type": "TRIGGER",
			"hotbar_name": "Shield Boost",
            "effect": "SHIELD_RECHARGE",
            "power": 3,
            "ticks": 60,
            "stress": 150,
            "cooldown": 150
        },
        "cost": 1000,
        "stack": 0,
        "min_level": 0,
        "max_level": 10,
        "drop_range": 6,
        "mass": 200,
        "icon": "item_shield_booster.png"
    }
]