[{
	"name": "Repair",
	"is_skill": true,
	"power_base": 16,
	"power_mult": 1,
	"xp_base": 150,
	"cost": 20
}, {
	"name": "Medic",
	"is_skill": true,
	"power_base": 30,
	"power_mult": 2,
	"xp_base": 100,
	"cost": 5
}, {
	"name": "Pilot",
	"is_skill": true,
	"power_base": 0,
	"power_mult": 2,
	"xp_base": 40,
	"cost": 50
}, {
	"name": "Gunner",
	"is_skill": true,
	"power_base": 0,
	"power_mult": 2,
	"xp_base": 25,
	"cost": 50
}, {
	"name": "Welding",
	"is_skill": true,
	"power_base": 200,
	"power_mult": 10,
	"xp_base": 120,
	"cost": 10
}]