[
    [
		"You are being approached by a ship",
		"This is <CALL_SIGN>",
        "Transfer some credits and nobody gets hurt."
    ],
    [
		"You are being approached by a ship",
		"This is <CALL_SIGN>",
        "Your money or your life"
    ]
]