[
    {
        "id": "Basic Engine",
        "display_name": "Basic Engine",
        "type": "ENGINE",
        "descr": [
            "<BR>",
            "<QUALITY>",
            "<THRUST> thrust",
            "<HEAT> heat generated",
            "<POWER_USE> power draw",
            "<FUEL> Fuel Efficiency"
        ],
        "hasQuality": 1,
        "icon": "item_normal_engine.png",
        "mass": 1200,
        "stack": 0,
        "min_level": 0,
        "max_level": 10,
        "cost": 1000,
        "x": 1,
        "y": 1,
        "fuelUse": 20,
        "placement": 3,
        "scrap_value": 10,
        "energyProduction": -5,
        "heatProduction": 4,
        "maxHeat": 200,
        "thrust": 22000,
        "imgON": "engine_ON.png",
        "imgOFF": "engine_OFF.png",
        "imgDAM": "engine_DAM.png",
        "imgOUT": "engine_outer.png"
    },
    {
        "id": "Heavy Engine",
        "display_name": "Heavy Engine",
        "type": "ENGINE",
        "descr": [
            "<BR>",
            "<QUALITY>",
            "<THRUST> thrust",
            "<HEAT> heat generated",
            "<POWER_USE> power draw",
            "<FUEL> Fuel Efficiency"
        ],
        "hasQuality": 1,
        "icon": "item_heavy_engine.png",
        "mass": 3000,
        "stack": 0,
        "min_level": 0,
        "max_level": 10,
        "cost": 1000,
        "x": 1,
        "y": 1,
        "fuelUse": 6,
        "placement": 3,
        "scrap_value": 10,
        "energyProduction": -5,
        "heatProduction": 4,
        "maxHeat": 200,
        "thrust": 12000,
        "imgON": "engine_ON.png",
        "imgOFF": "engine_OFF.png",
        "imgDAM": "engine_DAM.png",
        "imgOUT": "engine_outer.png"
    },
    {
        "id": "AR-16",
        "display_name": "AR-16",
        "type": "ENGINE",
        "descr": [
            "<BR>",
            "<QUALITY>",
            "<THRUST> thrust",
            "<HEAT> heat generated",
            "<POWER_USE> power draw",
            "<FUEL> Fuel Efficiency"
        ],
        "hasQuality": 1,
        "icon": "item_ar_16_engine.png",
        "mass": 1500,
        "stack": 0,
        "min_level": 0,
        "max_level": 10,
        "cost": 1000,
        "x": 1,
        "y": 1,
        "fuelUse": 90,
        "placement": 3,
        "scrap_value": 10,
        "energyProduction": -12,
        "heatProduction": 12,
        "maxHeat": 500,
        "thrust": 60000,
        "imgON": "engine_ON.png",
        "imgOFF": "engine_OFF.png",
        "imgDAM": "engine_DAM.png",
        "imgOUT": "engine_outer.png"
    }
]